[
    {
        "category_name": "Plugins API",
        "samples": [
                        {
                "required_extensions": [
                    "qr_code",
                    "marker_tracking"

                ],
                "name": "Marker Tracking",
                "path": "13_PluginsAPI_5_MarkerTracking/index.html",
                "requiredFeatures": [
                    "image_tracking"
                ],
                "startupConfiguration": {
                    "camera_position": "back"
                }
            }
        ]
    }
]