{
  "buildFiles": [
    "C:\\Users\\mi_ob\\source\\private\\fitty\\plugins\\src\\main\\cpp\\jni\\Android.mk",
    "C:\\Users\\mi_ob\\source\\private\\fitty\\plugins\\src\\main\\cpp\\jni\\Application.mk"
  ],
  "cleanCommands": [
    "C:\\Users\\mi_ob\\Downloads\\android-ndk-r14b-windows-x86_64\\android-ndk-r14b\\ndk-build.cmd NDK_PROJECT_PATH\u003dnull APP_BUILD_SCRIPT\u003dC:\\Users\\mi_ob\\source\\private\\fitty\\plugins\\src\\main\\cpp\\jni\\Android.mk NDK_APPLICATION_MK\u003dC:\\Users\\mi_ob\\source\\private\\fitty\\plugins\\src\\main\\cpp\\jni\\Application.mk APP_ABI\u003darmeabi-v7a NDK_ALL_ABIS\u003darmeabi-v7a NDK_DEBUG\u003d0 APP_PLATFORM\u003dandroid-19 NDK_OUT\u003dC:/Users/mi_ob/source/private/fitty/plugins/build/intermediates/ndkBuild/arm7/release/obj NDK_LIBS_OUT\u003dC:\\Users\\mi_ob\\source\\private\\fitty\\plugins\\build\\intermediates\\ndkBuild\\arm7\\release\\lib clean"
  ],
  "libraries": {
    "wikitudePlugins-arm7Release-armeabi-v7a": {
      "buildCommand": "C:\\Users\\mi_ob\\Downloads\\android-ndk-r14b-windows-x86_64\\android-ndk-r14b\\ndk-build.cmd NDK_PROJECT_PATH\u003dnull APP_BUILD_SCRIPT\u003dC:\\Users\\mi_ob\\source\\private\\fitty\\plugins\\src\\main\\cpp\\jni\\Android.mk NDK_APPLICATION_MK\u003dC:\\Users\\mi_ob\\source\\private\\fitty\\plugins\\src\\main\\cpp\\jni\\Application.mk APP_ABI\u003darmeabi-v7a NDK_ALL_ABIS\u003darmeabi-v7a NDK_DEBUG\u003d0 APP_PLATFORM\u003dandroid-19 NDK_OUT\u003dC:/Users/mi_ob/source/private/fitty/plugins/build/intermediates/ndkBuild/arm7/release/obj NDK_LIBS_OUT\u003dC:\\Users\\mi_ob\\source\\private\\fitty\\plugins\\build\\intermediates\\ndkBuild\\arm7\\release\\lib C:/Users/mi_ob/source/private/fitty/plugins/build/intermediates/ndkBuild/arm7/release/obj/local/armeabi-v7a/libwikitudePlugins.so",
      "toolchain": "toolchain-armeabi-v7a",
      "abi": "armeabi-v7a",
      "artifactName": "wikitudePlugins",
      "files": [
        {
          "src": "C:\\Users\\mi_ob\\source\\private\\fitty\\plugins\\src\\main\\cpp\\jni\\..\\src\\JniRegistration.cpp",
          "flags": "\"-gcc-toolchain\" \"C:/Users/mi_ob/Downloads/android-ndk-r14b-windows-x86_64/android-ndk-r14b/build//../toolchains/arm-linux-androideabi-4.9/prebuilt/windows-x86_64\" \"-fpic\" \"-ffunction-sections\" \"-funwind-tables\" \"-fstack-protector-strong\" \"-Wno-invalid-command-line-argument\" \"-Wno-unused-command-line-argument\" \"-no-canonical-prefixes\" \"-fno-integrated-as\" \"-g\" \"-target\" \"armv7-none-linux-androideabi\" \"-march\u003darmv7-a\" \"-mfloat-abi\u003dsoftfp\" \"-mfpu\u003dvfpv3-d16\" \"-fno-exceptions\" \"-fno-rtti\" \"-mthumb\" \"-Os\" \"-DNDEBUG\" \"-IC:/Users/mi_ob/source/private/fitty/plugins/src/main/cpp/jni/../include/wikitude\" \"-IC:/Users/mi_ob/source/private/fitty/plugins/src/main/cpp/jni/../include/zbar\" \"-IC:/Users/mi_ob/source/private/fitty/plugins/src/main/cpp/jni/../include/aruco\" \"-IC:/Users/mi_ob/source/private/fitty/plugins/src/main/cpp/jni/../include\" \"-IC:/Users/mi_ob/source/private/fitty/plugins/src/main/cpp/jni/../include/opencv2\" \"-IC:/Users/mi_ob/source/private/fitty/plugins/src/main/cpp/jni/../include/opencv2/core\" \"-IC:/Users/mi_ob/source/private/fitty/plugins/src/main/cpp/jni/../include/opencv2/imgproc\" \"-IC:/Users/mi_ob/source/private/fitty/plugins/src/main/cpp/jni/../include/opencv2/objdetect\" \"-IC:/Users/mi_ob/source/private/fitty/plugins/src/main/cpp/jni/../src/barcode\" \"-IC:/Users/mi_ob/source/private/fitty/plugins/src/main/cpp/jni/../src/custom_camera\" \"-IC:/Users/mi_ob/source/private/fitty/plugins/src/main/cpp/jni/../src/face_detection\" \"-IC:/Users/mi_ob/source/private/fitty/plugins/src/main/cpp/jni/../src/marker_tracking\" \"-IC:/Users/mi_ob/source/private/fitty/plugins/src/main/cpp/jni/../src/simple_input_plugin\" \"-IC:/Users/mi_ob/Downloads/android-ndk-r14b-windows-x86_64/android-ndk-r14b/build//../sources/cxx-stl/llvm-libc++/include\" \"-IC:/Users/mi_ob/Downloads/android-ndk-r14b-windows-x86_64/android-ndk-r14b/build//../sources/cxx-stl/llvm-libc++abi/include\" \"-IC:/Users/mi_ob/Downloads/android-ndk-r14b-windows-x86_64/android-ndk-r14b/build//../sources/android/support/include\" \"-IC:/Users/mi_ob/source/private/fitty/plugins/src/main/cpp/jni/../src\" \"-DANDROID\" \"-Wa,--noexecstack\" \"-Wformat\" \"-Werror\u003dformat-security\" \"-std\u003dc++11\" \"-DOPENCV_VERSION_3\" \"-frtti\" \"-fexceptions\" \"-std\u003dc++14\" \"--sysroot\" \"C:/Users/mi_ob/Downloads/android-ndk-r14b-windows-x86_64/android-ndk-r14b/build//../platforms/android-19/arch-arm\""
        },
        {
          "src": "C:\\Users\\mi_ob\\source\\private\\fitty\\plugins\\src\\main\\cpp\\jni\\..\\src\\barcode\\BarcodePlugin.cpp",
          "flags": "\"-gcc-toolchain\" \"C:/Users/mi_ob/Downloads/android-ndk-r14b-windows-x86_64/android-ndk-r14b/build//../toolchains/arm-linux-androideabi-4.9/prebuilt/windows-x86_64\" \"-fpic\" \"-ffunction-sections\" \"-funwind-tables\" \"-fstack-protector-strong\" \"-Wno-invalid-command-line-argument\" \"-Wno-unused-command-line-argument\" \"-no-canonical-prefixes\" \"-fno-integrated-as\" \"-g\" \"-target\" \"armv7-none-linux-androideabi\" \"-march\u003darmv7-a\" \"-mfloat-abi\u003dsoftfp\" \"-mfpu\u003dvfpv3-d16\" \"-fno-exceptions\" \"-fno-rtti\" \"-mthumb\" \"-Os\" \"-DNDEBUG\" \"-IC:/Users/mi_ob/source/private/fitty/plugins/src/main/cpp/jni/../include/wikitude\" \"-IC:/Users/mi_ob/source/private/fitty/plugins/src/main/cpp/jni/../include/zbar\" \"-IC:/Users/mi_ob/source/private/fitty/plugins/src/main/cpp/jni/../include/aruco\" \"-IC:/Users/mi_ob/source/private/fitty/plugins/src/main/cpp/jni/../include\" \"-IC:/Users/mi_ob/source/private/fitty/plugins/src/main/cpp/jni/../include/opencv2\" \"-IC:/Users/mi_ob/source/private/fitty/plugins/src/main/cpp/jni/../include/opencv2/core\" \"-IC:/Users/mi_ob/source/private/fitty/plugins/src/main/cpp/jni/../include/opencv2/imgproc\" \"-IC:/Users/mi_ob/source/private/fitty/plugins/src/main/cpp/jni/../include/opencv2/objdetect\" \"-IC:/Users/mi_ob/source/private/fitty/plugins/src/main/cpp/jni/../src/barcode\" \"-IC:/Users/mi_ob/source/private/fitty/plugins/src/main/cpp/jni/../src/custom_camera\" \"-IC:/Users/mi_ob/source/private/fitty/plugins/src/main/cpp/jni/../src/face_detection\" \"-IC:/Users/mi_ob/source/private/fitty/plugins/src/main/cpp/jni/../src/marker_tracking\" \"-IC:/Users/mi_ob/source/private/fitty/plugins/src/main/cpp/jni/../src/simple_input_plugin\" \"-IC:/Users/mi_ob/Downloads/android-ndk-r14b-windows-x86_64/android-ndk-r14b/build//../sources/cxx-stl/llvm-libc++/include\" \"-IC:/Users/mi_ob/Downloads/android-ndk-r14b-windows-x86_64/android-ndk-r14b/build//../sources/cxx-stl/llvm-libc++abi/include\" \"-IC:/Users/mi_ob/Downloads/android-ndk-r14b-windows-x86_64/android-ndk-r14b/build//../sources/android/support/include\" \"-IC:/Users/mi_ob/source/private/fitty/plugins/src/main/cpp/jni/../src\" \"-DANDROID\" \"-Wa,--noexecstack\" \"-Wformat\" \"-Werror\u003dformat-security\" \"-std\u003dc++11\" \"-DOPENCV_VERSION_3\" \"-frtti\" \"-fexceptions\" \"-std\u003dc++14\" \"--sysroot\" \"C:/Users/mi_ob/Downloads/android-ndk-r14b-windows-x86_64/android-ndk-r14b/build//../platforms/android-19/arch-arm\""
        },
        {
          "src": "C:\\Users\\mi_ob\\source\\private\\fitty\\plugins\\src\\main\\cpp\\jni\\..\\src\\custom_camera\\YUVFrameInputPlugin.cpp",
          "flags": "\"-gcc-toolchain\" \"C:/Users/mi_ob/Downloads/android-ndk-r14b-windows-x86_64/android-ndk-r14b/build//../toolchains/arm-linux-androideabi-4.9/prebuilt/windows-x86_64\" \"-fpic\" \"-ffunction-sections\" \"-funwind-tables\" \"-fstack-protector-strong\" \"-Wno-invalid-command-line-argument\" \"-Wno-unused-command-line-argument\" \"-no-canonical-prefixes\" \"-fno-integrated-as\" \"-g\" \"-target\" \"armv7-none-linux-androideabi\" \"-march\u003darmv7-a\" \"-mfloat-abi\u003dsoftfp\" \"-mfpu\u003dvfpv3-d16\" \"-fno-exceptions\" \"-fno-rtti\" \"-mthumb\" \"-Os\" \"-DNDEBUG\" \"-IC:/Users/mi_ob/source/private/fitty/plugins/src/main/cpp/jni/../include/wikitude\" \"-IC:/Users/mi_ob/source/private/fitty/plugins/src/main/cpp/jni/../include/zbar\" \"-IC:/Users/mi_ob/source/private/fitty/plugins/src/main/cpp/jni/../include/aruco\" \"-IC:/Users/mi_ob/source/private/fitty/plugins/src/main/cpp/jni/../include\" \"-IC:/Users/mi_ob/source/private/fitty/plugins/src/main/cpp/jni/../include/opencv2\" \"-IC:/Users/mi_ob/source/private/fitty/plugins/src/main/cpp/jni/../include/opencv2/core\" \"-IC:/Users/mi_ob/source/private/fitty/plugins/src/main/cpp/jni/../include/opencv2/imgproc\" \"-IC:/Users/mi_ob/source/private/fitty/plugins/src/main/cpp/jni/../include/opencv2/objdetect\" \"-IC:/Users/mi_ob/source/private/fitty/plugins/src/main/cpp/jni/../src/barcode\" \"-IC:/Users/mi_ob/source/private/fitty/plugins/src/main/cpp/jni/../src/custom_camera\" \"-IC:/Users/mi_ob/source/private/fitty/plugins/src/main/cpp/jni/../src/face_detection\" \"-IC:/Users/mi_ob/source/private/fitty/plugins/src/main/cpp/jni/../src/marker_tracking\" \"-IC:/Users/mi_ob/source/private/fitty/plugins/src/main/cpp/jni/../src/simple_input_plugin\" \"-IC:/Users/mi_ob/Downloads/android-ndk-r14b-windows-x86_64/android-ndk-r14b/build//../sources/cxx-stl/llvm-libc++/include\" \"-IC:/Users/mi_ob/Downloads/android-ndk-r14b-windows-x86_64/android-ndk-r14b/build//../sources/cxx-stl/llvm-libc++abi/include\" \"-IC:/Users/mi_ob/Downloads/android-ndk-r14b-windows-x86_64/android-ndk-r14b/build//../sources/android/support/include\" \"-IC:/Users/mi_ob/source/private/fitty/plugins/src/main/cpp/jni/../src\" \"-DANDROID\" \"-Wa,--noexecstack\" \"-Wformat\" \"-Werror\u003dformat-security\" \"-std\u003dc++11\" \"-DOPENCV_VERSION_3\" \"-frtti\" \"-fexceptions\" \"-std\u003dc++14\" \"--sysroot\" \"C:/Users/mi_ob/Downloads/android-ndk-r14b-windows-x86_64/android-ndk-r14b/build//../platforms/android-19/arch-arm\""
        },
        {
          "src": "C:\\Users\\mi_ob\\source\\private\\fitty\\plugins\\src\\main\\cpp\\jni\\..\\src\\custom_camera\\YUVFrameShaderSourceObject.cpp",
          "flags": "\"-gcc-toolchain\" \"C:/Users/mi_ob/Downloads/android-ndk-r14b-windows-x86_64/android-ndk-r14b/build//../toolchains/arm-linux-androideabi-4.9/prebuilt/windows-x86_64\" \"-fpic\" \"-ffunction-sections\" \"-funwind-tables\" \"-fstack-protector-strong\" \"-Wno-invalid-command-line-argument\" \"-Wno-unused-command-line-argument\" \"-no-canonical-prefixes\" \"-fno-integrated-as\" \"-g\" \"-target\" \"armv7-none-linux-androideabi\" \"-march\u003darmv7-a\" \"-mfloat-abi\u003dsoftfp\" \"-mfpu\u003dvfpv3-d16\" \"-fno-exceptions\" \"-fno-rtti\" \"-mthumb\" \"-Os\" \"-DNDEBUG\" \"-IC:/Users/mi_ob/source/private/fitty/plugins/src/main/cpp/jni/../include/wikitude\" \"-IC:/Users/mi_ob/source/private/fitty/plugins/src/main/cpp/jni/../include/zbar\" \"-IC:/Users/mi_ob/source/private/fitty/plugins/src/main/cpp/jni/../include/aruco\" \"-IC:/Users/mi_ob/source/private/fitty/plugins/src/main/cpp/jni/../include\" \"-IC:/Users/mi_ob/source/private/fitty/plugins/src/main/cpp/jni/../include/opencv2\" \"-IC:/Users/mi_ob/source/private/fitty/plugins/src/main/cpp/jni/../include/opencv2/core\" \"-IC:/Users/mi_ob/source/private/fitty/plugins/src/main/cpp/jni/../include/opencv2/imgproc\" \"-IC:/Users/mi_ob/source/private/fitty/plugins/src/main/cpp/jni/../include/opencv2/objdetect\" \"-IC:/Users/mi_ob/source/private/fitty/plugins/src/main/cpp/jni/../src/barcode\" \"-IC:/Users/mi_ob/source/private/fitty/plugins/src/main/cpp/jni/../src/custom_camera\" \"-IC:/Users/mi_ob/source/private/fitty/plugins/src/main/cpp/jni/../src/face_detection\" \"-IC:/Users/mi_ob/source/private/fitty/plugins/src/main/cpp/jni/../src/marker_tracking\" \"-IC:/Users/mi_ob/source/private/fitty/plugins/src/main/cpp/jni/../src/simple_input_plugin\" \"-IC:/Users/mi_ob/Downloads/android-ndk-r14b-windows-x86_64/android-ndk-r14b/build//../sources/cxx-stl/llvm-libc++/include\" \"-IC:/Users/mi_ob/Downloads/android-ndk-r14b-windows-x86_64/android-ndk-r14b/build//../sources/cxx-stl/llvm-libc++abi/include\" \"-IC:/Users/mi_ob/Downloads/android-ndk-r14b-windows-x86_64/android-ndk-r14b/build//../sources/android/support/include\" \"-IC:/Users/mi_ob/source/private/fitty/plugins/src/main/cpp/jni/../src\" \"-DANDROID\" \"-Wa,--noexecstack\" \"-Wformat\" \"-Werror\u003dformat-security\" \"-std\u003dc++11\" \"-DOPENCV_VERSION_3\" \"-frtti\" \"-fexceptions\" \"-std\u003dc++14\" \"--sysroot\" \"C:/Users/mi_ob/Downloads/android-ndk-r14b-windows-x86_64/android-ndk-r14b/build//../platforms/android-19/arch-arm\""
        },
        {
          "src": "C:\\Users\\mi_ob\\source\\private\\fitty\\plugins\\src\\main\\cpp\\jni\\..\\src\\face_detection\\FaceDetectionPlugin.cpp",
          "flags": "\"-gcc-toolchain\" \"C:/Users/mi_ob/Downloads/android-ndk-r14b-windows-x86_64/android-ndk-r14b/build//../toolchains/arm-linux-androideabi-4.9/prebuilt/windows-x86_64\" \"-fpic\" \"-ffunction-sections\" \"-funwind-tables\" \"-fstack-protector-strong\" \"-Wno-invalid-command-line-argument\" \"-Wno-unused-command-line-argument\" \"-no-canonical-prefixes\" \"-fno-integrated-as\" \"-g\" \"-target\" \"armv7-none-linux-androideabi\" \"-march\u003darmv7-a\" \"-mfloat-abi\u003dsoftfp\" \"-mfpu\u003dvfpv3-d16\" \"-fno-exceptions\" \"-fno-rtti\" \"-mthumb\" \"-Os\" \"-DNDEBUG\" \"-IC:/Users/mi_ob/source/private/fitty/plugins/src/main/cpp/jni/../include/wikitude\" \"-IC:/Users/mi_ob/source/private/fitty/plugins/src/main/cpp/jni/../include/zbar\" \"-IC:/Users/mi_ob/source/private/fitty/plugins/src/main/cpp/jni/../include/aruco\" \"-IC:/Users/mi_ob/source/private/fitty/plugins/src/main/cpp/jni/../include\" \"-IC:/Users/mi_ob/source/private/fitty/plugins/src/main/cpp/jni/../include/opencv2\" \"-IC:/Users/mi_ob/source/private/fitty/plugins/src/main/cpp/jni/../include/opencv2/core\" \"-IC:/Users/mi_ob/source/private/fitty/plugins/src/main/cpp/jni/../include/opencv2/imgproc\" \"-IC:/Users/mi_ob/source/private/fitty/plugins/src/main/cpp/jni/../include/opencv2/objdetect\" \"-IC:/Users/mi_ob/source/private/fitty/plugins/src/main/cpp/jni/../src/barcode\" \"-IC:/Users/mi_ob/source/private/fitty/plugins/src/main/cpp/jni/../src/custom_camera\" \"-IC:/Users/mi_ob/source/private/fitty/plugins/src/main/cpp/jni/../src/face_detection\" \"-IC:/Users/mi_ob/source/private/fitty/plugins/src/main/cpp/jni/../src/marker_tracking\" \"-IC:/Users/mi_ob/source/private/fitty/plugins/src/main/cpp/jni/../src/simple_input_plugin\" \"-IC:/Users/mi_ob/Downloads/android-ndk-r14b-windows-x86_64/android-ndk-r14b/build//../sources/cxx-stl/llvm-libc++/include\" \"-IC:/Users/mi_ob/Downloads/android-ndk-r14b-windows-x86_64/android-ndk-r14b/build//../sources/cxx-stl/llvm-libc++abi/include\" \"-IC:/Users/mi_ob/Downloads/android-ndk-r14b-windows-x86_64/android-ndk-r14b/build//../sources/android/support/include\" \"-IC:/Users/mi_ob/source/private/fitty/plugins/src/main/cpp/jni/../src\" \"-DANDROID\" \"-Wa,--noexecstack\" \"-Wformat\" \"-Werror\u003dformat-security\" \"-std\u003dc++11\" \"-DOPENCV_VERSION_3\" \"-frtti\" \"-fexceptions\" \"-std\u003dc++14\" \"--sysroot\" \"C:/Users/mi_ob/Downloads/android-ndk-r14b-windows-x86_64/android-ndk-r14b/build//../platforms/android-19/arch-arm\""
        },
        {
          "src": "C:\\Users\\mi_ob\\source\\private\\fitty\\plugins\\src\\main\\cpp\\jni\\..\\src\\face_detection\\FaceDetectionPluginConnector.cpp",
          "flags": "\"-gcc-toolchain\" \"C:/Users/mi_ob/Downloads/android-ndk-r14b-windows-x86_64/android-ndk-r14b/build//../toolchains/arm-linux-androideabi-4.9/prebuilt/windows-x86_64\" \"-fpic\" \"-ffunction-sections\" \"-funwind-tables\" \"-fstack-protector-strong\" \"-Wno-invalid-command-line-argument\" \"-Wno-unused-command-line-argument\" \"-no-canonical-prefixes\" \"-fno-integrated-as\" \"-g\" \"-target\" \"armv7-none-linux-androideabi\" \"-march\u003darmv7-a\" \"-mfloat-abi\u003dsoftfp\" \"-mfpu\u003dvfpv3-d16\" \"-fno-exceptions\" \"-fno-rtti\" \"-mthumb\" \"-Os\" \"-DNDEBUG\" \"-IC:/Users/mi_ob/source/private/fitty/plugins/src/main/cpp/jni/../include/wikitude\" \"-IC:/Users/mi_ob/source/private/fitty/plugins/src/main/cpp/jni/../include/zbar\" \"-IC:/Users/mi_ob/source/private/fitty/plugins/src/main/cpp/jni/../include/aruco\" \"-IC:/Users/mi_ob/source/private/fitty/plugins/src/main/cpp/jni/../include\" \"-IC:/Users/mi_ob/source/private/fitty/plugins/src/main/cpp/jni/../include/opencv2\" \"-IC:/Users/mi_ob/source/private/fitty/plugins/src/main/cpp/jni/../include/opencv2/core\" \"-IC:/Users/mi_ob/source/private/fitty/plugins/src/main/cpp/jni/../include/opencv2/imgproc\" \"-IC:/Users/mi_ob/source/private/fitty/plugins/src/main/cpp/jni/../include/opencv2/objdetect\" \"-IC:/Users/mi_ob/source/private/fitty/plugins/src/main/cpp/jni/../src/barcode\" \"-IC:/Users/mi_ob/source/private/fitty/plugins/src/main/cpp/jni/../src/custom_camera\" \"-IC:/Users/mi_ob/source/private/fitty/plugins/src/main/cpp/jni/../src/face_detection\" \"-IC:/Users/mi_ob/source/private/fitty/plugins/src/main/cpp/jni/../src/marker_tracking\" \"-IC:/Users/mi_ob/source/private/fitty/plugins/src/main/cpp/jni/../src/simple_input_plugin\" \"-IC:/Users/mi_ob/Downloads/android-ndk-r14b-windows-x86_64/android-ndk-r14b/build//../sources/cxx-stl/llvm-libc++/include\" \"-IC:/Users/mi_ob/Downloads/android-ndk-r14b-windows-x86_64/android-ndk-r14b/build//../sources/cxx-stl/llvm-libc++abi/include\" \"-IC:/Users/mi_ob/Downloads/android-ndk-r14b-windows-x86_64/android-ndk-r14b/build//../sources/android/support/include\" \"-IC:/Users/mi_ob/source/private/fitty/plugins/src/main/cpp/jni/../src\" \"-DANDROID\" \"-Wa,--noexecstack\" \"-Wformat\" \"-Werror\u003dformat-security\" \"-std\u003dc++11\" \"-DOPENCV_VERSION_3\" \"-frtti\" \"-fexceptions\" \"-std\u003dc++14\" \"--sysroot\" \"C:/Users/mi_ob/Downloads/android-ndk-r14b-windows-x86_64/android-ndk-r14b/build//../platforms/android-19/arch-arm\""
        },
        {
          "src": "C:\\Users\\mi_ob\\source\\private\\fitty\\plugins\\src\\main\\cpp\\jni\\..\\src\\jniHelper.cpp",
          "flags": "\"-gcc-toolchain\" \"C:/Users/mi_ob/Downloads/android-ndk-r14b-windows-x86_64/android-ndk-r14b/build//../toolchains/arm-linux-androideabi-4.9/prebuilt/windows-x86_64\" \"-fpic\" \"-ffunction-sections\" \"-funwind-tables\" \"-fstack-protector-strong\" \"-Wno-invalid-command-line-argument\" \"-Wno-unused-command-line-argument\" \"-no-canonical-prefixes\" \"-fno-integrated-as\" \"-g\" \"-target\" \"armv7-none-linux-androideabi\" \"-march\u003darmv7-a\" \"-mfloat-abi\u003dsoftfp\" \"-mfpu\u003dvfpv3-d16\" \"-fno-exceptions\" \"-fno-rtti\" \"-mthumb\" \"-Os\" \"-DNDEBUG\" \"-IC:/Users/mi_ob/source/private/fitty/plugins/src/main/cpp/jni/../include/wikitude\" \"-IC:/Users/mi_ob/source/private/fitty/plugins/src/main/cpp/jni/../include/zbar\" \"-IC:/Users/mi_ob/source/private/fitty/plugins/src/main/cpp/jni/../include/aruco\" \"-IC:/Users/mi_ob/source/private/fitty/plugins/src/main/cpp/jni/../include\" \"-IC:/Users/mi_ob/source/private/fitty/plugins/src/main/cpp/jni/../include/opencv2\" \"-IC:/Users/mi_ob/source/private/fitty/plugins/src/main/cpp/jni/../include/opencv2/core\" \"-IC:/Users/mi_ob/source/private/fitty/plugins/src/main/cpp/jni/../include/opencv2/imgproc\" \"-IC:/Users/mi_ob/source/private/fitty/plugins/src/main/cpp/jni/../include/opencv2/objdetect\" \"-IC:/Users/mi_ob/source/private/fitty/plugins/src/main/cpp/jni/../src/barcode\" \"-IC:/Users/mi_ob/source/private/fitty/plugins/src/main/cpp/jni/../src/custom_camera\" \"-IC:/Users/mi_ob/source/private/fitty/plugins/src/main/cpp/jni/../src/face_detection\" \"-IC:/Users/mi_ob/source/private/fitty/plugins/src/main/cpp/jni/../src/marker_tracking\" \"-IC:/Users/mi_ob/source/private/fitty/plugins/src/main/cpp/jni/../src/simple_input_plugin\" \"-IC:/Users/mi_ob/Downloads/android-ndk-r14b-windows-x86_64/android-ndk-r14b/build//../sources/cxx-stl/llvm-libc++/include\" \"-IC:/Users/mi_ob/Downloads/android-ndk-r14b-windows-x86_64/android-ndk-r14b/build//../sources/cxx-stl/llvm-libc++abi/include\" \"-IC:/Users/mi_ob/Downloads/android-ndk-r14b-windows-x86_64/android-ndk-r14b/build//../sources/android/support/include\" \"-IC:/Users/mi_ob/source/private/fitty/plugins/src/main/cpp/jni/../src\" \"-DANDROID\" \"-Wa,--noexecstack\" \"-Wformat\" \"-Werror\u003dformat-security\" \"-std\u003dc++11\" \"-DOPENCV_VERSION_3\" \"-frtti\" \"-fexceptions\" \"-std\u003dc++14\" \"--sysroot\" \"C:/Users/mi_ob/Downloads/android-ndk-r14b-windows-x86_64/android-ndk-r14b/build//../platforms/android-19/arch-arm\""
        },
        {
          "src": "C:\\Users\\mi_ob\\source\\private\\fitty\\plugins\\src\\main\\cpp\\jni\\..\\src\\marker_tracking\\MarkerTrackingPlugin.cpp",
          "flags": "\"-gcc-toolchain\" \"C:/Users/mi_ob/Downloads/android-ndk-r14b-windows-x86_64/android-ndk-r14b/build//../toolchains/arm-linux-androideabi-4.9/prebuilt/windows-x86_64\" \"-fpic\" \"-ffunction-sections\" \"-funwind-tables\" \"-fstack-protector-strong\" \"-Wno-invalid-command-line-argument\" \"-Wno-unused-command-line-argument\" \"-no-canonical-prefixes\" \"-fno-integrated-as\" \"-g\" \"-target\" \"armv7-none-linux-androideabi\" \"-march\u003darmv7-a\" \"-mfloat-abi\u003dsoftfp\" \"-mfpu\u003dvfpv3-d16\" \"-fno-exceptions\" \"-fno-rtti\" \"-mthumb\" \"-Os\" \"-DNDEBUG\" \"-IC:/Users/mi_ob/source/private/fitty/plugins/src/main/cpp/jni/../include/wikitude\" \"-IC:/Users/mi_ob/source/private/fitty/plugins/src/main/cpp/jni/../include/zbar\" \"-IC:/Users/mi_ob/source/private/fitty/plugins/src/main/cpp/jni/../include/aruco\" \"-IC:/Users/mi_ob/source/private/fitty/plugins/src/main/cpp/jni/../include\" \"-IC:/Users/mi_ob/source/private/fitty/plugins/src/main/cpp/jni/../include/opencv2\" \"-IC:/Users/mi_ob/source/private/fitty/plugins/src/main/cpp/jni/../include/opencv2/core\" \"-IC:/Users/mi_ob/source/private/fitty/plugins/src/main/cpp/jni/../include/opencv2/imgproc\" \"-IC:/Users/mi_ob/source/private/fitty/plugins/src/main/cpp/jni/../include/opencv2/objdetect\" \"-IC:/Users/mi_ob/source/private/fitty/plugins/src/main/cpp/jni/../src/barcode\" \"-IC:/Users/mi_ob/source/private/fitty/plugins/src/main/cpp/jni/../src/custom_camera\" \"-IC:/Users/mi_ob/source/private/fitty/plugins/src/main/cpp/jni/../src/face_detection\" \"-IC:/Users/mi_ob/source/private/fitty/plugins/src/main/cpp/jni/../src/marker_tracking\" \"-IC:/Users/mi_ob/source/private/fitty/plugins/src/main/cpp/jni/../src/simple_input_plugin\" \"-IC:/Users/mi_ob/Downloads/android-ndk-r14b-windows-x86_64/android-ndk-r14b/build//../sources/cxx-stl/llvm-libc++/include\" \"-IC:/Users/mi_ob/Downloads/android-ndk-r14b-windows-x86_64/android-ndk-r14b/build//../sources/cxx-stl/llvm-libc++abi/include\" \"-IC:/Users/mi_ob/Downloads/android-ndk-r14b-windows-x86_64/android-ndk-r14b/build//../sources/android/support/include\" \"-IC:/Users/mi_ob/source/private/fitty/plugins/src/main/cpp/jni/../src\" \"-DANDROID\" \"-Wa,--noexecstack\" \"-Wformat\" \"-Werror\u003dformat-security\" \"-std\u003dc++11\" \"-DOPENCV_VERSION_3\" \"-frtti\" \"-fexceptions\" \"-std\u003dc++14\" \"--sysroot\" \"C:/Users/mi_ob/Downloads/android-ndk-r14b-windows-x86_64/android-ndk-r14b/build//../platforms/android-19/arch-arm\""
        },
        {
          "src": "C:\\Users\\mi_ob\\source\\private\\fitty\\plugins\\src\\main\\cpp\\jni\\..\\src\\simple_input_plugin\\SimpleInputPlugin.cpp",
          "flags": "\"-gcc-toolchain\" \"C:/Users/mi_ob/Downloads/android-ndk-r14b-windows-x86_64/android-ndk-r14b/build//../toolchains/arm-linux-androideabi-4.9/prebuilt/windows-x86_64\" \"-fpic\" \"-ffunction-sections\" \"-funwind-tables\" \"-fstack-protector-strong\" \"-Wno-invalid-command-line-argument\" \"-Wno-unused-command-line-argument\" \"-no-canonical-prefixes\" \"-fno-integrated-as\" \"-g\" \"-target\" \"armv7-none-linux-androideabi\" \"-march\u003darmv7-a\" \"-mfloat-abi\u003dsoftfp\" \"-mfpu\u003dvfpv3-d16\" \"-fno-exceptions\" \"-fno-rtti\" \"-mthumb\" \"-Os\" \"-DNDEBUG\" \"-IC:/Users/mi_ob/source/private/fitty/plugins/src/main/cpp/jni/../include/wikitude\" \"-IC:/Users/mi_ob/source/private/fitty/plugins/src/main/cpp/jni/../include/zbar\" \"-IC:/Users/mi_ob/source/private/fitty/plugins/src/main/cpp/jni/../include/aruco\" \"-IC:/Users/mi_ob/source/private/fitty/plugins/src/main/cpp/jni/../include\" \"-IC:/Users/mi_ob/source/private/fitty/plugins/src/main/cpp/jni/../include/opencv2\" \"-IC:/Users/mi_ob/source/private/fitty/plugins/src/main/cpp/jni/../include/opencv2/core\" \"-IC:/Users/mi_ob/source/private/fitty/plugins/src/main/cpp/jni/../include/opencv2/imgproc\" \"-IC:/Users/mi_ob/source/private/fitty/plugins/src/main/cpp/jni/../include/opencv2/objdetect\" \"-IC:/Users/mi_ob/source/private/fitty/plugins/src/main/cpp/jni/../src/barcode\" \"-IC:/Users/mi_ob/source/private/fitty/plugins/src/main/cpp/jni/../src/custom_camera\" \"-IC:/Users/mi_ob/source/private/fitty/plugins/src/main/cpp/jni/../src/face_detection\" \"-IC:/Users/mi_ob/source/private/fitty/plugins/src/main/cpp/jni/../src/marker_tracking\" \"-IC:/Users/mi_ob/source/private/fitty/plugins/src/main/cpp/jni/../src/simple_input_plugin\" \"-IC:/Users/mi_ob/Downloads/android-ndk-r14b-windows-x86_64/android-ndk-r14b/build//../sources/cxx-stl/llvm-libc++/include\" \"-IC:/Users/mi_ob/Downloads/android-ndk-r14b-windows-x86_64/android-ndk-r14b/build//../sources/cxx-stl/llvm-libc++abi/include\" \"-IC:/Users/mi_ob/Downloads/android-ndk-r14b-windows-x86_64/android-ndk-r14b/build//../sources/android/support/include\" \"-IC:/Users/mi_ob/source/private/fitty/plugins/src/main/cpp/jni/../src\" \"-DANDROID\" \"-Wa,--noexecstack\" \"-Wformat\" \"-Werror\u003dformat-security\" \"-std\u003dc++11\" \"-DOPENCV_VERSION_3\" \"-frtti\" \"-fexceptions\" \"-std\u003dc++14\" \"--sysroot\" \"C:/Users/mi_ob/Downloads/android-ndk-r14b-windows-x86_64/android-ndk-r14b/build//../platforms/android-19/arch-arm\""
        }
      ],
      "output": "C:\\Users\\mi_ob\\source\\private\\fitty\\plugins\\build\\intermediates\\ndkBuild\\arm7\\release\\obj\\local\\armeabi-v7a\\libwikitudePlugins.so"
    }
  },
  "toolchains": {
    "toolchain-armeabi-v7a": {
      "cppCompilerExecutable": "C:\\Users\\mi_ob\\Downloads\\android-ndk-r14b-windows-x86_64\\android-ndk-r14b\\build\\..\\toolchains\\llvm\\prebuilt\\windows-x86_64\\bin\\clang++.exe"
    }
  },
  "cFileExtensions": [],
  "cppFileExtensions": [
    "cpp"
  ]
}