-- Merging decision tree log ---
manifest
ADDED from C:\Users\mi_ob\source\private\fitty\wikitude-sdk-samples\src\main\AndroidManifest.xml:2:1-79:12
	package
		ADDED from C:\Users\mi_ob\source\private\fitty\wikitude-sdk-samples\src\main\AndroidManifest.xml:3:5-38
		INJECTED from C:\Users\mi_ob\source\private\fitty\wikitude-sdk-samples\src\main\AndroidManifest.xml
		INJECTED from C:\Users\mi_ob\source\private\fitty\wikitude-sdk-samples\src\main\AndroidManifest.xml
	android:versionName
		INJECTED from C:\Users\mi_ob\source\private\fitty\wikitude-sdk-samples\src\main\AndroidManifest.xml
		INJECTED from C:\Users\mi_ob\source\private\fitty\wikitude-sdk-samples\src\main\AndroidManifest.xml
	xmlns:android
		ADDED from C:\Users\mi_ob\source\private\fitty\wikitude-sdk-samples\src\main\AndroidManifest.xml:2:11-69
	android:versionCode
		INJECTED from C:\Users\mi_ob\source\private\fitty\wikitude-sdk-samples\src\main\AndroidManifest.xml
		INJECTED from C:\Users\mi_ob\source\private\fitty\wikitude-sdk-samples\src\main\AndroidManifest.xml
uses-permission#android.permission.CAMERA
ADDED from C:\Users\mi_ob\source\private\fitty\wikitude-sdk-samples\src\main\AndroidManifest.xml:5:5-65
	android:name
		ADDED from C:\Users\mi_ob\source\private\fitty\wikitude-sdk-samples\src\main\AndroidManifest.xml:5:22-62
uses-permission#android.permission.INTERNET
ADDED from C:\Users\mi_ob\source\private\fitty\wikitude-sdk-samples\src\main\AndroidManifest.xml:6:5-67
	android:name
		ADDED from C:\Users\mi_ob\source\private\fitty\wikitude-sdk-samples\src\main\AndroidManifest.xml:6:22-64
uses-permission#android.permission.ACCESS_COARSE_LOCATION
ADDED from C:\Users\mi_ob\source\private\fitty\wikitude-sdk-samples\src\main\AndroidManifest.xml:7:5-81
	android:name
		ADDED from C:\Users\mi_ob\source\private\fitty\wikitude-sdk-samples\src\main\AndroidManifest.xml:7:22-78
uses-permission#android.permission.ACCESS_FINE_LOCATION
ADDED from C:\Users\mi_ob\source\private\fitty\wikitude-sdk-samples\src\main\AndroidManifest.xml:8:5-79
	android:name
		ADDED from C:\Users\mi_ob\source\private\fitty\wikitude-sdk-samples\src\main\AndroidManifest.xml:8:22-76
uses-permission#android.permission.ACCESS_NETWORK_STATE
ADDED from C:\Users\mi_ob\source\private\fitty\wikitude-sdk-samples\src\main\AndroidManifest.xml:9:5-79
	android:name
		ADDED from C:\Users\mi_ob\source\private\fitty\wikitude-sdk-samples\src\main\AndroidManifest.xml:9:22-76
uses-permission#android.permission.ACCESS_WIFI_STATE
ADDED from C:\Users\mi_ob\source\private\fitty\wikitude-sdk-samples\src\main\AndroidManifest.xml:10:5-76
	android:name
		ADDED from C:\Users\mi_ob\source\private\fitty\wikitude-sdk-samples\src\main\AndroidManifest.xml:10:22-73
uses-permission#android.permission.WRITE_EXTERNAL_STORAGE
ADDED from C:\Users\mi_ob\source\private\fitty\wikitude-sdk-samples\src\main\AndroidManifest.xml:11:5-81
	android:name
		ADDED from C:\Users\mi_ob\source\private\fitty\wikitude-sdk-samples\src\main\AndroidManifest.xml:11:22-78
uses-feature#0x00020000
ADDED from C:\Users\mi_ob\source\private\fitty\wikitude-sdk-samples\src\main\AndroidManifest.xml:14:5-16:35
	android:glEsVersion
		ADDED from C:\Users\mi_ob\source\private\fitty\wikitude-sdk-samples\src\main\AndroidManifest.xml:15:9-41
	android:required
		ADDED from C:\Users\mi_ob\source\private\fitty\wikitude-sdk-samples\src\main\AndroidManifest.xml:16:9-32
uses-feature#android.hardware.camera
ADDED from C:\Users\mi_ob\source\private\fitty\wikitude-sdk-samples\src\main\AndroidManifest.xml:17:5-19:35
	android:required
		ADDED from C:\Users\mi_ob\source\private\fitty\wikitude-sdk-samples\src\main\AndroidManifest.xml:19:9-32
	android:name
		ADDED from C:\Users\mi_ob\source\private\fitty\wikitude-sdk-samples\src\main\AndroidManifest.xml:18:9-47
uses-feature#android.hardware.location
ADDED from C:\Users\mi_ob\source\private\fitty\wikitude-sdk-samples\src\main\AndroidManifest.xml:20:5-22:35
	android:required
		ADDED from C:\Users\mi_ob\source\private\fitty\wikitude-sdk-samples\src\main\AndroidManifest.xml:22:9-32
	android:name
		ADDED from C:\Users\mi_ob\source\private\fitty\wikitude-sdk-samples\src\main\AndroidManifest.xml:21:9-49
uses-feature#android.hardware.sensor.accelerometer
ADDED from C:\Users\mi_ob\source\private\fitty\wikitude-sdk-samples\src\main\AndroidManifest.xml:23:5-25:35
	android:required
		ADDED from C:\Users\mi_ob\source\private\fitty\wikitude-sdk-samples\src\main\AndroidManifest.xml:25:9-32
	android:name
		ADDED from C:\Users\mi_ob\source\private\fitty\wikitude-sdk-samples\src\main\AndroidManifest.xml:24:9-61
uses-feature#android.hardware.sensor.compass
ADDED from C:\Users\mi_ob\source\private\fitty\wikitude-sdk-samples\src\main\AndroidManifest.xml:26:5-28:35
	android:required
		ADDED from C:\Users\mi_ob\source\private\fitty\wikitude-sdk-samples\src\main\AndroidManifest.xml:28:9-32
	android:name
		ADDED from C:\Users\mi_ob\source\private\fitty\wikitude-sdk-samples\src\main\AndroidManifest.xml:27:9-55
uses-feature#android.hardware.sensor.gyroscope
ADDED from C:\Users\mi_ob\source\private\fitty\wikitude-sdk-samples\src\main\AndroidManifest.xml:29:5-31:36
	android:required
		ADDED from C:\Users\mi_ob\source\private\fitty\wikitude-sdk-samples\src\main\AndroidManifest.xml:31:9-33
	android:name
		ADDED from C:\Users\mi_ob\source\private\fitty\wikitude-sdk-samples\src\main\AndroidManifest.xml:30:9-57
application
ADDED from C:\Users\mi_ob\source\private\fitty\wikitude-sdk-samples\src\main\AndroidManifest.xml:33:5-77:19
MERGED from [:wikitudesdk:] C:\Users\mi_ob\.android\build-cache\79a1f2d0db12a9c25113289520dadccbdcfa2f2b\output\AndroidManifest.xml:11:5-16:19
MERGED from [com.android.support:design:26.0.0] C:\Users\mi_ob\.android\build-cache\ef5c335ad1d82fb30d9887b3710e2726532869b2\output\AndroidManifest.xml:25:5-29:19
MERGED from [com.android.support:appcompat-v7:26.0.0] C:\Users\mi_ob\.android\build-cache\31b18733a901392fc7a744a763b36eab36c44cc9\output\AndroidManifest.xml:25:5-29:19
MERGED from [com.android.support:animated-vector-drawable:26.0.0] C:\Users\mi_ob\.android\build-cache\e858b4a6c46420ac5637e9689aa4b0aff72961da\output\AndroidManifest.xml:22:5-26:19
MERGED from [com.android.support:support-vector-drawable:26.0.0] C:\Users\mi_ob\.android\build-cache\90901a4efe483828c4ac54d916b6347be5c6e9ea\output\AndroidManifest.xml:22:5-26:19
MERGED from [com.android.support:recyclerview-v7:26.0.0] C:\Users\mi_ob\.android\build-cache\81b7f0701d2cba18668e96580c8968770014f3f7\output\AndroidManifest.xml:22:5-26:19
MERGED from [com.android.support:transition:26.0.0] C:\Users\mi_ob\.android\build-cache\acc42edad03724527651d1118cee06799b215881\output\AndroidManifest.xml:22:5-26:19
MERGED from [com.android.support:support-v4:26.0.0] C:\Users\mi_ob\.android\build-cache\fc4b8167284980dde060fbc678213070b5f525c8\output\AndroidManifest.xml:25:5-29:19
MERGED from [com.android.support:support-media-compat:26.0.0] C:\Users\mi_ob\.android\build-cache\7094eb9a264a5216e474003efb83a6c4099848a3\output\AndroidManifest.xml:25:5-29:19
MERGED from [com.android.support:support-fragment:26.0.0] C:\Users\mi_ob\.android\build-cache\ae2d3fd499d26bdb88363a4045ffeab433721814\output\AndroidManifest.xml:25:5-29:19
MERGED from [com.android.support:support-core-ui:26.0.0] C:\Users\mi_ob\.android\build-cache\5287f4393f5b330faf5897b9bc833f992bdc797d\output\AndroidManifest.xml:25:5-29:19
MERGED from [com.android.support:support-core-utils:26.0.0] C:\Users\mi_ob\.android\build-cache\769afe3b84ec0cb5156cab3d65a95c774799d761\output\AndroidManifest.xml:25:5-29:19
MERGED from [com.android.support:support-compat:26.0.0] C:\Users\mi_ob\.android\build-cache\dc0453f5d639fd327497ef0fa8a6db37dd3fa39d\output\AndroidManifest.xml:25:5-29:19
MERGED from [com.android.support.constraint:constraint-layout:1.0.2] C:\Users\mi_ob\.android\build-cache\88ab894eb1b8b9e167d759107c82cf68dbaee92e\output\AndroidManifest.xml:9:5-20
	android:label
		ADDED from C:\Users\mi_ob\source\private\fitty\wikitude-sdk-samples\src\main\AndroidManifest.xml:35:9-41
	android:resizeableActivity
		ADDED from C:\Users\mi_ob\source\private\fitty\wikitude-sdk-samples\src\main\AndroidManifest.xml:36:9-43
	android:icon
		ADDED from C:\Users\mi_ob\source\private\fitty\wikitude-sdk-samples\src\main\AndroidManifest.xml:34:9-43
	android:theme
		ADDED from C:\Users\mi_ob\source\private\fitty\wikitude-sdk-samples\src\main\AndroidManifest.xml:37:9-40
activity#com.wikitude.samples.MainActivity
ADDED from C:\Users\mi_ob\source\private\fitty\wikitude-sdk-samples\src\main\AndroidManifest.xml:38:9-44:20
	android:name
		ADDED from C:\Users\mi_ob\source\private\fitty\wikitude-sdk-samples\src\main\AndroidManifest.xml:38:19-67
intent-filter#android.intent.action.MAIN+android.intent.category.LAUNCHER
ADDED from C:\Users\mi_ob\source\private\fitty\wikitude-sdk-samples\src\main\AndroidManifest.xml:39:13-43:29
action#android.intent.action.MAIN
ADDED from C:\Users\mi_ob\source\private\fitty\wikitude-sdk-samples\src\main\AndroidManifest.xml:40:17-69
	android:name
		ADDED from C:\Users\mi_ob\source\private\fitty\wikitude-sdk-samples\src\main\AndroidManifest.xml:40:25-66
category#android.intent.category.LAUNCHER
ADDED from C:\Users\mi_ob\source\private\fitty\wikitude-sdk-samples\src\main\AndroidManifest.xml:42:17-77
	android:name
		ADDED from C:\Users\mi_ob\source\private\fitty\wikitude-sdk-samples\src\main\AndroidManifest.xml:42:27-74
activity#com.wikitude.samples.SimpleArActivity
ADDED from C:\Users\mi_ob\source\private\fitty\wikitude-sdk-samples\src\main\AndroidManifest.xml:45:9-47:77
	android:configChanges
		ADDED from C:\Users\mi_ob\source\private\fitty\wikitude-sdk-samples\src\main\AndroidManifest.xml:47:13-74
	android:name
		ADDED from C:\Users\mi_ob\source\private\fitty\wikitude-sdk-samples\src\main\AndroidManifest.xml:46:13-65
activity#com.wikitude.samples.SimpleGeoArActivity
ADDED from C:\Users\mi_ob\source\private\fitty\wikitude-sdk-samples\src\main\AndroidManifest.xml:48:9-50:77
	android:configChanges
		ADDED from C:\Users\mi_ob\source\private\fitty\wikitude-sdk-samples\src\main\AndroidManifest.xml:50:13-74
	android:name
		ADDED from C:\Users\mi_ob\source\private\fitty\wikitude-sdk-samples\src\main\AndroidManifest.xml:49:13-68
activity#com.wikitude.samples.advanced.SamplePoiDetailActivity
ADDED from C:\Users\mi_ob\source\private\fitty\wikitude-sdk-samples\src\main\AndroidManifest.xml:51:9-53:77
	android:configChanges
		ADDED from C:\Users\mi_ob\source\private\fitty\wikitude-sdk-samples\src\main\AndroidManifest.xml:53:13-74
	android:name
		ADDED from C:\Users\mi_ob\source\private\fitty\wikitude-sdk-samples\src\main\AndroidManifest.xml:52:13-81
activity#com.wikitude.samples.fragments.UrlLauncherActivity
ADDED from C:\Users\mi_ob\source\private\fitty\wikitude-sdk-samples\src\main\AndroidManifest.xml:54:9-56:77
	android:configChanges
		ADDED from C:\Users\mi_ob\source\private\fitty\wikitude-sdk-samples\src\main\AndroidManifest.xml:56:13-74
	android:name
		ADDED from C:\Users\mi_ob\source\private\fitty\wikitude-sdk-samples\src\main\AndroidManifest.xml:55:13-78
activity#com.wikitude.samples.advanced.ArchitectViewExtensionActivity
ADDED from C:\Users\mi_ob\source\private\fitty\wikitude-sdk-samples\src\main\AndroidManifest.xml:57:9-59:77
	android:configChanges
		ADDED from C:\Users\mi_ob\source\private\fitty\wikitude-sdk-samples\src\main\AndroidManifest.xml:59:13-74
	android:name
		ADDED from C:\Users\mi_ob\source\private\fitty\wikitude-sdk-samples\src\main\AndroidManifest.xml:58:13-88
activity#com.wikitude.samples.util.urllauncher.UrlLauncherSettingsActivity
ADDED from C:\Users\mi_ob\source\private\fitty\wikitude-sdk-samples\src\main\AndroidManifest.xml:60:9-62:40
	android:noHistory
		ADDED from C:\Users\mi_ob\source\private\fitty\wikitude-sdk-samples\src\main\AndroidManifest.xml:62:13-37
	android:name
		ADDED from C:\Users\mi_ob\source\private\fitty\wikitude-sdk-samples\src\main\AndroidManifest.xml:61:13-93
activity#com.wikitude.samples.util.urllauncher.UrlLauncherStorageActivity
ADDED from C:\Users\mi_ob\source\private\fitty\wikitude-sdk-samples\src\main\AndroidManifest.xml:63:9-101
	android:name
		ADDED from C:\Users\mi_ob\source\private\fitty\wikitude-sdk-samples\src\main\AndroidManifest.xml:63:19-98
provider#android.support.v4.content.FileProvider
ADDED from C:\Users\mi_ob\source\private\fitty\wikitude-sdk-samples\src\main\AndroidManifest.xml:65:9-73:20
	android:authorities
		ADDED from C:\Users\mi_ob\source\private\fitty\wikitude-sdk-samples\src\main\AndroidManifest.xml:67:13-67
	android:grantUriPermissions
		ADDED from C:\Users\mi_ob\source\private\fitty\wikitude-sdk-samples\src\main\AndroidManifest.xml:69:13-47
	android:exported
		ADDED from C:\Users\mi_ob\source\private\fitty\wikitude-sdk-samples\src\main\AndroidManifest.xml:68:13-37
	android:name
		ADDED from C:\Users\mi_ob\source\private\fitty\wikitude-sdk-samples\src\main\AndroidManifest.xml:66:13-67
meta-data#android.support.FILE_PROVIDER_PATHS
ADDED from C:\Users\mi_ob\source\private\fitty\wikitude-sdk-samples\src\main\AndroidManifest.xml:70:13-72:58
	android:resource
		ADDED from C:\Users\mi_ob\source\private\fitty\wikitude-sdk-samples\src\main\AndroidManifest.xml:72:17-55
	android:name
		ADDED from C:\Users\mi_ob\source\private\fitty\wikitude-sdk-samples\src\main\AndroidManifest.xml:71:17-67
activity#com.wikitude.samples.CanvasActivity
ADDED from C:\Users\mi_ob\source\private\fitty\wikitude-sdk-samples\src\main\AndroidManifest.xml:75:9-72
	android:name
		ADDED from C:\Users\mi_ob\source\private\fitty\wikitude-sdk-samples\src\main\AndroidManifest.xml:75:19-69
activity#com.wikitude.samples.CameraActivity
ADDED from C:\Users\mi_ob\source\private\fitty\wikitude-sdk-samples\src\main\AndroidManifest.xml:76:9-81
	android:name
		ADDED from C:\Users\mi_ob\source\private\fitty\wikitude-sdk-samples\src\main\AndroidManifest.xml:76:19-69
uses-sdk
INJECTED from C:\Users\mi_ob\source\private\fitty\wikitude-sdk-samples\src\main\AndroidManifest.xml reason: use-sdk injection requested
MERGED from [fitty:plugins:unspecified:allarchsRelease] C:\Users\mi_ob\source\private\fitty\plugins\build\intermediates\bundles\allarchsRelease\AndroidManifest.xml:6:5-8:41
MERGED from [:wikitudesdk:] C:\Users\mi_ob\.android\build-cache\79a1f2d0db12a9c25113289520dadccbdcfa2f2b\output\AndroidManifest.xml:7:5-9:41
MERGED from [com.android.support:design:26.0.0] C:\Users\mi_ob\.android\build-cache\ef5c335ad1d82fb30d9887b3710e2726532869b2\output\AndroidManifest.xml:21:5-23:62
MERGED from [com.android.support:multidex:1.0.1] C:\Users\mi_ob\.android\build-cache\e6d3aeba35d93cc003d3c070596ac9c3b0a0127f\output\AndroidManifest.xml:18:5-42
MERGED from [com.android.support:appcompat-v7:26.0.0] C:\Users\mi_ob\.android\build-cache\31b18733a901392fc7a744a763b36eab36c44cc9\output\AndroidManifest.xml:21:5-23:78
MERGED from [com.android.support:animated-vector-drawable:26.0.0] C:\Users\mi_ob\.android\build-cache\e858b4a6c46420ac5637e9689aa4b0aff72961da\output\AndroidManifest.xml:20:5-44
MERGED from [com.android.support:support-vector-drawable:26.0.0] C:\Users\mi_ob\.android\build-cache\90901a4efe483828c4ac54d916b6347be5c6e9ea\output\AndroidManifest.xml:20:5-44
MERGED from [com.android.support:recyclerview-v7:26.0.0] C:\Users\mi_ob\.android\build-cache\81b7f0701d2cba18668e96580c8968770014f3f7\output\AndroidManifest.xml:20:5-44
MERGED from [com.android.support:transition:26.0.0] C:\Users\mi_ob\.android\build-cache\acc42edad03724527651d1118cee06799b215881\output\AndroidManifest.xml:20:5-44
MERGED from [com.android.support:support-v4:26.0.0] C:\Users\mi_ob\.android\build-cache\fc4b8167284980dde060fbc678213070b5f525c8\output\AndroidManifest.xml:21:5-23:54
MERGED from [com.android.support:support-media-compat:26.0.0] C:\Users\mi_ob\.android\build-cache\7094eb9a264a5216e474003efb83a6c4099848a3\output\AndroidManifest.xml:21:5-23:63
MERGED from [com.android.support:support-fragment:26.0.0] C:\Users\mi_ob\.android\build-cache\ae2d3fd499d26bdb88363a4045ffeab433721814\output\AndroidManifest.xml:21:5-23:60
MERGED from [com.android.support:support-core-ui:26.0.0] C:\Users\mi_ob\.android\build-cache\5287f4393f5b330faf5897b9bc833f992bdc797d\output\AndroidManifest.xml:21:5-23:58
MERGED from [com.android.support:support-core-utils:26.0.0] C:\Users\mi_ob\.android\build-cache\769afe3b84ec0cb5156cab3d65a95c774799d761\output\AndroidManifest.xml:21:5-23:61
MERGED from [com.android.support:support-compat:26.0.0] C:\Users\mi_ob\.android\build-cache\dc0453f5d639fd327497ef0fa8a6db37dd3fa39d\output\AndroidManifest.xml:21:5-23:58
MERGED from [com.android.support.constraint:constraint-layout:1.0.2] C:\Users\mi_ob\.android\build-cache\88ab894eb1b8b9e167d759107c82cf68dbaee92e\output\AndroidManifest.xml:5:5-7:41
	tools:overrideLibrary
		ADDED from [com.android.support:design:26.0.0] C:\Users\mi_ob\.android\build-cache\ef5c335ad1d82fb30d9887b3710e2726532869b2\output\AndroidManifest.xml:23:9-59
	android:targetSdkVersion
		INJECTED from C:\Users\mi_ob\source\private\fitty\wikitude-sdk-samples\src\main\AndroidManifest.xml
		INJECTED from C:\Users\mi_ob\source\private\fitty\wikitude-sdk-samples\src\main\AndroidManifest.xml
	android:minSdkVersion
		INJECTED from C:\Users\mi_ob\source\private\fitty\wikitude-sdk-samples\src\main\AndroidManifest.xml
		INJECTED from C:\Users\mi_ob\source\private\fitty\wikitude-sdk-samples\src\main\AndroidManifest.xml
activity#com.wikitude.architect.BrowserActivity
ADDED from [:wikitudesdk:] C:\Users\mi_ob\.android\build-cache\79a1f2d0db12a9c25113289520dadccbdcfa2f2b\output\AndroidManifest.xml:12:9-75
	android:name
		ADDED from [:wikitudesdk:] C:\Users\mi_ob\.android\build-cache\79a1f2d0db12a9c25113289520dadccbdcfa2f2b\output\AndroidManifest.xml:12:19-72
activity#com.wikitude.tools.activities.MediaPlayerActivity
ADDED from [:wikitudesdk:] C:\Users\mi_ob\.android\build-cache\79a1f2d0db12a9c25113289520dadccbdcfa2f2b\output\AndroidManifest.xml:13:9-15:77
	android:configChanges
		ADDED from [:wikitudesdk:] C:\Users\mi_ob\.android\build-cache\79a1f2d0db12a9c25113289520dadccbdcfa2f2b\output\AndroidManifest.xml:15:13-74
	android:name
		ADDED from [:wikitudesdk:] C:\Users\mi_ob\.android\build-cache\79a1f2d0db12a9c25113289520dadccbdcfa2f2b\output\AndroidManifest.xml:14:13-77
meta-data#android.support.VERSION
ADDED from [com.android.support:design:26.0.0] C:\Users\mi_ob\.android\build-cache\ef5c335ad1d82fb30d9887b3710e2726532869b2\output\AndroidManifest.xml:26:9-28:38
MERGED from [com.android.support:appcompat-v7:26.0.0] C:\Users\mi_ob\.android\build-cache\31b18733a901392fc7a744a763b36eab36c44cc9\output\AndroidManifest.xml:26:9-28:38
MERGED from [com.android.support:animated-vector-drawable:26.0.0] C:\Users\mi_ob\.android\build-cache\e858b4a6c46420ac5637e9689aa4b0aff72961da\output\AndroidManifest.xml:23:9-25:38
MERGED from [com.android.support:support-vector-drawable:26.0.0] C:\Users\mi_ob\.android\build-cache\90901a4efe483828c4ac54d916b6347be5c6e9ea\output\AndroidManifest.xml:23:9-25:38
MERGED from [com.android.support:recyclerview-v7:26.0.0] C:\Users\mi_ob\.android\build-cache\81b7f0701d2cba18668e96580c8968770014f3f7\output\AndroidManifest.xml:23:9-25:38
MERGED from [com.android.support:transition:26.0.0] C:\Users\mi_ob\.android\build-cache\acc42edad03724527651d1118cee06799b215881\output\AndroidManifest.xml:23:9-25:38
MERGED from [com.android.support:support-v4:26.0.0] C:\Users\mi_ob\.android\build-cache\fc4b8167284980dde060fbc678213070b5f525c8\output\AndroidManifest.xml:26:9-28:38
MERGED from [com.android.support:support-media-compat:26.0.0] C:\Users\mi_ob\.android\build-cache\7094eb9a264a5216e474003efb83a6c4099848a3\output\AndroidManifest.xml:26:9-28:38
MERGED from [com.android.support:support-fragment:26.0.0] C:\Users\mi_ob\.android\build-cache\ae2d3fd499d26bdb88363a4045ffeab433721814\output\AndroidManifest.xml:26:9-28:38
MERGED from [com.android.support:support-core-ui:26.0.0] C:\Users\mi_ob\.android\build-cache\5287f4393f5b330faf5897b9bc833f992bdc797d\output\AndroidManifest.xml:26:9-28:38
MERGED from [com.android.support:support-core-utils:26.0.0] C:\Users\mi_ob\.android\build-cache\769afe3b84ec0cb5156cab3d65a95c774799d761\output\AndroidManifest.xml:26:9-28:38
MERGED from [com.android.support:support-compat:26.0.0] C:\Users\mi_ob\.android\build-cache\dc0453f5d639fd327497ef0fa8a6db37dd3fa39d\output\AndroidManifest.xml:26:9-28:38
	android:value
		ADDED from [com.android.support:design:26.0.0] C:\Users\mi_ob\.android\build-cache\ef5c335ad1d82fb30d9887b3710e2726532869b2\output\AndroidManifest.xml:28:13-35
	android:name
		ADDED from [com.android.support:design:26.0.0] C:\Users\mi_ob\.android\build-cache\ef5c335ad1d82fb30d9887b3710e2726532869b2\output\AndroidManifest.xml:27:13-51
